{ 
    "ARNCcBridge": [{
        "ccid" : 0,
        "nameoncard": "ABC XYZ",
        "supplymentarycards": 2,
        "limit": 150000
    },{
        "ccid" : 1,
        "nameoncard": "ABC XYZ",
        "supplymentarycards": 0,
        "limit": 150000
    }],
    "ApplicantDetails": {
        "salutation":"Mr",
        "firstname":"ABC",
        "lastname":"XYZ",
        "formername":"EBZ",
        "othername":"JBK",
        "gender":"Male",
        "dateofbirth":"18/05/2017",
        "iddoctype":"NRIC",
        "idvalue":"1234512345",
        "mobile":"1234512345",
        "email":"abc"
    },
    "ApplicantDeclarations":[{
        "id": "BANK_TO_ASSIGN",
        "isapplicantagree": true
    },{
        "id": "BALANCE_TRANSFER",
        "isapplicantagree": true
    },{
        "id": "RECEIVE_STATEMENT",
        "isapplicantagree": true
    },{
        "id": "T_AND_C_1",
        "isapplicantagree": true
    },{
        "id": "T_AND_C_2",
        "isapplicantagree": true
    },{
        "id": "DATA_PROTECTION_CLAUSE",
        "isapplicantagree": true
    },{
        "id": "GENERIC_CONSENT",
        "isapplicantagree": true
    }],
    "ApplicantAdditionalInfo": {
        "educationlevel": "POST_GRADUATE"
    },
    "Suppapplicant_1": {
        "relationwithprimaryapplicant":"Mr"
    },
    "Suppapplicant_1_ApplicantDetails": {
        "salutation":"Mr",
        "firstname":"ABC",
        "lastname":"XYZ",
        "formername":"EBZ",
        "othername":"JBK",
        "gender":"Male",
        "dateofbirth":"18/05/2017",
        "mobile":"1234512345",
        "email":"abc"
    },
    "Suppapplicant_2": {
        "relationwithprimaryapplicant":"Mr"
    },
    "Suppapplicant_2_ApplicantDetails": {
        "salutation":"Mr",
        "firstname":"ABC",
        "lastname":"XYZ",
        "formername":"EBZ",
        "othername":"JBK",
        "gender":"Male",
        "dateofbirth":"18/05/2017",
        "mobile":"1234512345",
        "email":"abc"
    },
    "CCApplicationAdditionalInfo":{
        "actfrbeneficiaryacname": "ABC",
        "actfrbeneficiaryacnumber": 12345,
        "actfrbeneficiarybankname": "PNB",
        "amttobetransfered":15000
    }    
}